"estimate" "lower.CI" "upper.CI"
"amp" 0.225459429143192 0.0275337853503232 0.423385072936062
"acr" 0.88036307296584 0.0229641089853289 1.73776203694635
"F" "df1" "df2" "p"
"1" 2.53044183002379 2 4 0.194885206807087
"x"
"1" 15.362739234674
