"estimate" "lower.CI" "upper.CI"
"amp" 0.549329737492726 0.238308476899707 0.860350998085745
"acr" -1.24038114431812 -1.75319353843846 -0.727568750197771
"F" "df1" "df2" "p"
"1" 6.02755857191105 2 4 0.0620716121620469
"x"
"1" 7.26209302953097
