"estimate" "lower.CI" "upper.CI"
"amp" 0.452392406721334 0.246966894794965 0.657817918647704
"acr" -1.45927361778549 -1.86100191583554 -1.05754531973545
"F" "df1" "df2" "p"
"1" 9.32234590388979 2 4 0.0312023392148717
"x"
"1" 6.42598536974029
