time,-2,0,4,8,12,16,20,24
mean,1.269,1,0.843,0.956,0.824,0.384,0.8473,0.6254
stdev,0.075863300416615,0,0.031783766664691,0.032928020530881,0.070897821394235,0.018044655871197,0.047470976901875,0.053934980607359
