time,-2,0,4,8,12,16,20,24
mean,0.886559063423576,1,1.2603,1.238,0.765544912737377,1.01331419598154,1.323,0.632759284997152
stdev,0.037707517946836,0,0.023255204830262,0.180017032732742,0.122981915877542,0.178347401932033,0.023426657271139,0.017135129297559
