time,-2,0,4,8,12,16,20,24
mean,1.0722339501081,1,1.08138868975968,1.284,1.12816186567284,0.531,0.655937949284479,0.738
stdev,0.008340928277258,0,0.006859075008068,0.022502952460302,0.041904649757914,0.035196696151197,0.013327047207897,0.016009885503824
