time,-2,0,4,8,12,16,20,24
mean,0.982317677812099,1,0.632964695267672,1.18543849439094,0.983207419592274,0.53891468543772,0.453438990918484,0.28412265538598
stdev,0.037570101963129,0,0.01929349006036,0.010999353033295,0.040464975620547,0.075593621289023,0.032627781219722,0.037136929402306
